Lab 9
…
report_03_21_2020 %>% 
  group_by(Country.Region) %>% 
  summarise(Recovered = sum(Recovered)) %>% 
  arrange(desc(Recovered))

## # A tibble: 178 x 2
##    Country.Region Recovered
##    <chr>              <dbl>
##  1 China              71857
##  2 Iran                7635
##  3 Italy               6072
##  4 Spain               2125
##  5 Korea, South        1540
##  6 Cruise Ship          325
##  7 Belgium              263
##  8 Germany              233
##  9 Japan                232
## 10 US                   171
## # ... with 168 more rows
…
report_03_21_2020 %>% 
  group_by(Country.Region) %>% 
  summarise(Confirmed = sum(Confirmed)) %>% 
  arrange(desc(Confirmed))

## # A tibble: 178 x 2
##    Country.Region Confirmed
##    <chr>              <dbl>
##  1 China              81305
##  2 Italy              53578
##  3 US                 25493
##  4 Spain              25374
##  5 Germany            22213
##  6 Iran               20610
##  7 France             14308
##  8 Korea, South        8799
##  9 Switzerland         6575
## 10 United Kingdom      5067
## # ... with 168 more rows
…
